<?xml version="1.0" encoding="UTF-8" standalone="no"?>
<svg
   xmlns:dc="http://purl.org/dc/elements/1.1/"
   xmlns:cc="http://creativecommons.org/ns#"
   xmlns:rdf="http://www.w3.org/1999/02/22-rdf-syntax-ns#"
   xmlns:svg="http://www.w3.org/2000/svg"
   xmlns="http://www.w3.org/2000/svg"
   width="47.428215mm"
   height="7.0273328mm"
   viewBox="0 0 47.428215 7.0273328"
   version="1.1"
   id="svg2122">
  <defs
     id="defs2116" />
  <metadata
     id="metadata2119">
    <rdf:RDF>
      <cc:Work
         rdf:about="">
        <dc:format>image/svg+xml</dc:format>
        <dc:type
           rdf:resource="http://purl.org/dc/dcmitype/StillImage" />
        <dc:title></dc:title>
      </cc:Work>
    </rdf:RDF>
  </metadata>
  <g
     id="layer1"
     transform="translate(107.47725,-22.090622)">
    <g
       aria-label="tracktor.it"
       id="text1375"
       style="font-style:normal;font-variant:normal;font-weight:bold;font-stretch:normal;font-size:9.525px;line-height:120%;font-family:'Open Sans';-inkscape-font-specification:'Open Sans';text-align:start;letter-spacing:0px;word-spacing:0px;writing-mode:lr-tb;text-anchor:start;display:inline;fill:none;fill-opacity:1;stroke:#000000;stroke-width:0.264583px;stroke-linecap:butt;stroke-linejoin:miter;stroke-opacity:1">
      <g
         aria-label="tracktor.it!"
         id="text1375-3"
         style="font-style:normal;font-variant:normal;font-weight:bold;font-stretch:normal;font-size:9.525px;line-height:120%;font-family:'Open Sans';-inkscape-font-specification:'Open Sans';text-align:start;letter-spacing:0px;word-spacing:0px;writing-mode:lr-tb;text-anchor:start;display:inline;fill:none;fill-opacity:1;stroke:#000000;stroke-width:0.264583px;stroke-linecap:butt;stroke-linejoin:miter;stroke-opacity:1">
        <path
           d="m -104.52556,28.985663 q -0.35242,0 -0.59055,-0.02858 -0.23812,-0.02858 -0.47625,-0.1143 -0.2667,-0.08573 -0.43815,-0.238125 -0.16192,-0.1524 -0.2667,-0.4191 -0.1143,-0.276225 -0.1143,-0.638175 v -2.409825 h -0.93345 v -0.85725 h 0.93345 v -1.333499 h 1.39065 v 1.333499 h 1.26683 v 0.85725 h -1.26683 v 2.1717 q 0,0.333375 0.0571,0.504825 0.0572,0.161925 0.21908,0.238125 0.16192,0.06668 0.4953,0.06668 0.13335,0 0.4953,-0.04763 v 0.866775 q -0.44768,0.04763 -0.77153,0.04763 z"
           style="font-style:normal;font-variant:normal;font-weight:bold;font-stretch:normal;font-size:9.525px;font-family:play;-inkscape-font-specification:'play Bold';fill:#1d4b7e;fill-opacity:1;stroke:none;stroke-width:0.264583px"
           id="path3015" />
        <path
           d="m -102.96108,24.280313 h 1.32398 v 0.809625 q 0,-0.219075 0.18097,-0.428625 0.18098,-0.20955 0.4572,-0.3429 0.28575,-0.13335 0.56198,-0.13335 h 0.495298 v 1.152525 h -0.476248 q -0.59055,0 -0.8763,0.180975 -0.27623,0.180975 -0.27623,0.600075 v 2.771775 h -1.39065 z"
           style="font-style:normal;font-variant:normal;font-weight:bold;font-stretch:normal;font-size:9.525px;font-family:play;-inkscape-font-specification:'play Bold';fill:#1d4b7e;fill-opacity:1;stroke:none;stroke-width:0.264583px"
           id="path3017" />
        <path
           d="m -97.879639,28.985663 q -0.6477,0 -0.97155,-0.1143 -0.314325,-0.123825 -0.447675,-0.428625 -0.123825,-0.314325 -0.123825,-0.93345 0,-0.55245 0.13335,-0.866775 0.142875,-0.314325 0.447675,-0.447675 0.314325,-0.142875 0.85725,-0.142875 h 1.5621 v -0.314325 q 0,-0.295275 -0.08572,-0.43815 -0.0762,-0.142875 -0.295275,-0.200025 -0.20955,-0.05715 -0.638175,-0.05715 -0.59055,0 -1.61925,0.1143 v -0.8763 q 0.752475,-0.09525 1.762125,-0.09525 0.885825,0 1.362075,0.13335 0.485775,0.13335 0.695325,0.4572 0.20955,0.32385 0.20955,0.942975 v 3.171825 h -1.362075 v -0.4191 q -0.161925,0.276225 -0.43815,0.390525 -0.276225,0.123825 -1.04775,0.123825 z m 0.542925,-0.866775 q 0.4191,0 0.600075,-0.02858 0.13335,-0.01905 0.180975,-0.05715 0.05715,-0.0381 0.09525,-0.123825 0.0381,-0.06668 0.0381,-0.200025 v -0.89535 h -0.9525 q -0.32385,0 -0.4572,0.04763 -0.13335,0.0381 -0.180975,0.17145 -0.04762,0.123825 -0.04762,0.447675 0,0.314325 0.04762,0.43815 0.04763,0.123825 0.180975,0.161925 0.142875,0.0381 0.4953,0.0381 z"
           style="font-style:normal;font-variant:normal;font-weight:bold;font-stretch:normal;font-size:9.525px;font-family:play;-inkscape-font-specification:'play Bold';fill:#1d4b7e;fill-opacity:1;stroke:none;stroke-width:0.264583px"
           id="path3019" />
        <path
           d="m -91.560248,28.985663 q -0.36195,0 -0.5715,-0.01905 -0.20955,-0.0095 -0.51435,-0.04763 -0.3048,-0.0381 -0.504825,-0.13335 -0.1905,-0.09525 -0.40005,-0.28575 -0.390525,-0.32385 -0.390525,-1.1049 v -1.533525 q 0,-0.62865 0.28575,-1.04775 0.104775,-0.1524 0.3048,-0.276225 0.20955,-0.13335 0.4191,-0.20955 0.17145,-0.05715 0.4572,-0.09525 0.28575,-0.0381 0.504825,-0.04763 h 0.504825 q 0.5334,0 1.400175,0.17145 v 0.9144 q -0.981075,-0.2286 -1.50495,-0.2286 -0.962025,0 -0.962025,0.6477 v 1.69545 q 0,0.733425 1.057275,0.733425 0.51435,0 1.476375,-0.20955 v 0.9144 q -0.866775,0.161925 -1.5621,0.161925 z"
           style="font-style:normal;font-variant:normal;font-weight:bold;font-stretch:normal;font-size:9.525px;font-family:play;-inkscape-font-specification:'play Bold';fill:#1d4b7e;fill-opacity:1;stroke:none;stroke-width:0.264583px"
           id="path3021" />
        <path
           d="m -89.21308,22.222914 h 1.39065 v 6.667499 h -1.39065 z m 1.4478,4.076699 1.514475,-2.0193 h 1.590675 l -1.6002,2.009775 1.73355,2.600325 h -1.571625 z"
           style="font-style:normal;font-variant:normal;font-weight:bold;font-stretch:normal;font-size:9.525px;font-family:play;-inkscape-font-specification:'play Bold';fill:#1d4b7e;fill-opacity:1;stroke:none;stroke-width:0.264583px"
           id="path3023" />
        <path
           d="m -81.77346,28.985663 q -0.352425,0 -0.59055,-0.02858 -0.238125,-0.02858 -0.47625,-0.1143 -0.2667,-0.08573 -0.43815,-0.238125 -0.161925,-0.1524 -0.2667,-0.4191 -0.1143,-0.276225 -0.1143,-0.638175 v -2.409825 h -0.93345 v -0.85725 h 0.93345 v -1.333499 h 1.39065 v 1.333499 h 1.266825 v 0.85725 h -1.266825 v 2.1717 q 0,0.333375 0.05715,0.504825 0.05715,0.161925 0.219075,0.238125 0.161925,0.06668 0.4953,0.06668 0.13335,0 0.4953,-0.04763 v 0.866775 q -0.447675,0.04763 -0.771525,0.04763 z"
           style="font-style:normal;font-variant:normal;font-weight:bold;font-stretch:normal;font-size:9.525px;font-family:play;-inkscape-font-specification:'play Bold';fill:#1d4b7e;fill-opacity:1;stroke:none;stroke-width:0.264583px"
           id="path3025" />
        <path
           d="m -77.999179,28.985663 q -0.428625,0 -0.70485,-0.02858 -0.276225,-0.02858 -0.59055,-0.1143 -0.3429,-0.09525 -0.55245,-0.2667 -0.20955,-0.180975 -0.352425,-0.504825 -0.142875,-0.314325 -0.142875,-0.762 v -1.362075 q 0,-0.4572 0.142875,-0.8001 0.142875,-0.3429 0.371475,-0.5334 0.200025,-0.161925 0.523875,-0.2667 0.333375,-0.1143 0.6477,-0.142875 0.36195,-0.01905 0.657225,-0.01905 0.43815,0 0.695325,0.02858 0.2667,0.01905 0.581025,0.1143 0.3429,0.104775 0.55245,0.28575 0.219075,0.180975 0.371475,0.51435 0.142875,0.3429 0.142875,0.81915 v 1.362075 q 0,0.428625 -0.142875,0.752475 -0.13335,0.32385 -0.352425,0.504825 -0.1905,0.161925 -0.523875,0.2667 -0.32385,0.09525 -0.638175,0.123825 -0.28575,0.02858 -0.6858,0.02858 z m 0,-0.866775 q 0.390525,0 0.59055,-0.05715 0.200025,-0.06668 0.276225,-0.200025 0.08572,-0.13335 0.08572,-0.390525 v -1.743075 q 0,-0.381 -0.200025,-0.5334 -0.200025,-0.1524 -0.752475,-0.1524 -0.55245,0 -0.752475,0.1524 -0.200025,0.1524 -0.200025,0.5334 v 1.743075 q 0,0.257175 0.0762,0.390525 0.08572,0.13335 0.28575,0.200025 0.200025,0.05715 0.59055,0.05715 z"
           style="font-style:normal;font-variant:normal;font-weight:bold;font-stretch:normal;font-size:9.525px;font-family:play;-inkscape-font-specification:'play Bold';fill:#1d4b7e;fill-opacity:1;stroke:none;stroke-width:0.264583px"
           id="path3027" />
        <path
           d="m -74.572113,24.280313 h 1.323975 v 0.809625 q 0,-0.219075 0.180975,-0.428625 0.180975,-0.20955 0.4572,-0.3429 0.28575,-0.13335 0.561975,-0.13335 h 0.4953 v 1.152525 h -0.47625 q -0.59055,0 -0.8763,0.180975 -0.276225,0.180975 -0.276225,0.600075 v 2.771775 h -1.39065 z"
           style="font-style:normal;font-variant:normal;font-weight:bold;font-stretch:normal;font-size:9.525px;font-family:play;-inkscape-font-specification:'play Bold';fill:#1d4b7e;fill-opacity:1;stroke:none;stroke-width:0.264583px"
           id="path3029" />
        <path
           d="m -70.928951,27.575963 h 1.4859 v 1.31445 h -1.4859 z"
           style="font-style:normal;font-variant:normal;font-weight:bold;font-stretch:normal;font-size:9.525px;font-family:play;-inkscape-font-specification:'play Bold';fill:#1d4b7e;fill-opacity:1;stroke:none;stroke-width:0.264583px"
           id="path3031" />
        <path
           d="m -68.32044,22.613439 h 1.39065 v 1.123949 h -1.39065 z m 0,1.666874 h 1.39065 v 4.6101 h -1.39065 z"
           style="font-style:normal;font-variant:normal;font-weight:bold;font-stretch:normal;font-size:9.525px;font-family:play;-inkscape-font-specification:'play Bold';fill:#1d4b7e;fill-opacity:1;stroke:none;stroke-width:0.264583px"
           id="path3033" />
        <path
           d="m -63.374584,28.985663 q -0.352425,0 -0.59055,-0.02858 -0.238125,-0.02858 -0.47625,-0.1143 -0.2667,-0.08573 -0.43815,-0.238125 -0.161925,-0.1524 -0.2667,-0.4191 -0.1143,-0.276225 -0.1143,-0.638175 v -2.409825 h -0.93345 v -0.85725 h 0.93345 v -1.333499 h 1.39065 v 1.333499 h 1.266825 v 0.85725 h -1.266825 v 2.1717 q 0,0.333375 0.05715,0.504825 0.05715,0.161925 0.219075,0.238125 0.161925,0.06668 0.4953,0.06668 0.13335,0 0.4953,-0.04763 v 0.866775 q -0.447675,0.04763 -0.771525,0.04763 z"
           style="font-style:normal;font-variant:normal;font-weight:bold;font-stretch:normal;font-size:9.525px;font-family:play;-inkscape-font-specification:'play Bold';fill:#1d4b7e;fill-opacity:1;stroke:none;stroke-width:0.264583px"
           id="path3035" />
        <path
           d="m -61.848201,22.708689 h 1.666875 l -0.409575,4.391024 h -0.847725 z m 0.09525,4.867274 h 1.4859 v 1.31445 h -1.4859 z"
           style="font-style:normal;font-variant:normal;font-weight:bold;font-stretch:normal;font-size:9.525px;font-family:play;-inkscape-font-specification:'play Bold';fill:#1d4b7e;fill-opacity:1;stroke:none;stroke-width:0.264583px"
           id="path3037" />
      </g>
    </g>
  </g>
</svg>
