{
    "home": "Startseite",
    "add-tracker": "Tracker hinzufügen",
    "tracker-database": "Trackerdatenbank",
    "help-with-translation": "Beim Übersetzen helfen",
    "captured-websites-and-apps": "Erfasste Webseiten und Apps",
    "faq": "Hilfe",
    "imprint": "Impressum",
    "privacy": "Datenschutz",
    "sourcecode": "Quellcode",
    "donate": "Spenden"
}