{
    "slug": "google-audicences",
    "name": "Google Analytics Remarketing",
    "priority": 70,
    "tracking-urls": ["/ads/ga-audiences"],
    "note": {
        "image": "/images/screenshots-tracker/ga_audiences_ga_cid.png",
        "title": "Parameter CID",
        "text": "Zur Info: Die Einbettung selbst setzt nicht immer ein Cookie, aber erhält über den Parameter 'cid' die pseudonyme ID, die Google Analytics im Normalfall als Cookie 'ga' mit einer Laufzeit von zwei Jahren unter der besuchten URL als First-Party-Cookie speichert."
    },            
    "template": "Google Analytics Remarketing\nMit dieser Einbindung kann ein Seitenbetreiber die pseudonymen IDs, die zunächst von Google Analytics für die Markforschung gesammelt wurden, auch für die Erstellung von Zielgruppen und personalisierter Werbung verwenden. So kann ein Besucher, der beispielsweise seinen Warenkorb abgebrochen hat, bei Google Ads erneut beworben werden. Dazu wird zunächst die personenbeziehbare, eindeutige Besucher-ID von Google Analytics (z.B. aus dem Cookie 'ga') unter anderem an google.com oder doubleclick.net gesendet (als Parameter 'cid'). Sobald ein bestimmtes Verhalten ausgelöst wurde, kann diese Information in das Profil einfließen, welches Google unter diesen beiden Domains webseitenübergreifend führt. Daher setzt und nutzt diese Einbindung oftmals zusätzlich die pseudonymen Werbecookies 'NID' (z.B. unter google.com/google.de) oder 'IDE' (unter doubleclick.net). Die Übertragung der 'cid' für Retargeting bedarf aber bereits einer Einwilligung."
}
