{
    "slug": "google-advertising-features",
    "name": "Google Advertising Features",
    "priority": 60,
    "tracking-urls": [
        "stats.g.doubleclick.net"
    ],
    "template": "Google Advertising Features:\nAufrufe an stats.g.doubleclick.net zeigen im Normalfall an, dass Google Analytics in den Einstellungen um Werbefunktionen oder personalisierte Anzeigen erweitert wurde. So kann das Verhalten des Seitenbesuchers für personalisierte Werbung bzw. seine Interaktion mit Anzeigen ausgewertet werden. Diese Verbindung kann deaktiviert werden. Unter der Domain doubleclick.net setzt Google das Cookie 'IDE' ein, welches für personalisierte Werbung verwendet wird. Darüber hinaus enthalten die Aufrufe meist auch den Parameter 'cid', der der pseudonymen ID aus dem First-Party-Cookie 'ga' entspricht. Das ga-Cookie wird von Google Analytics für die Profilbildung verwendet und zeichnet Nutzerverhalten mit einer Laufzeit von zwei Jahren auf.\nhttps://support.google.com/analytics/answer/9050852?hl=de"
}
