{
    "slug": "zoho",
    "priority": 0,
    "name": "Zoho (mit First-Pary-Cookie \"zabUserId\")",
    "tracking-urls": ["zoho.com"],
    "note": {
        "image": "/images/screenshots-tracker/zoho_zabuserid.png",
        "title": "zabUserId-Cookie Screenshot",
        "text": "Einbettungen von zoho.com sind ohne Einwilligung immer dann rechtswidrig, wenn das First-Party-Cookie \"zabUserId\" geschrieben oder gelesen wird. Dieses profilbildenden Cookie ist daher unter der besuchten Website gespeichert und nicht unter \"zoho.com\". Für die Beschwerde einen Beleg des gespeicherten Cookies anfügen, z.B. den Screenshot aus dem Tab \"Web-Speicher\"." 
    },            
    "template": "Zoho:\nDer Dienstleister Zoho bietet eine umfangreiche Software-Suite, die auch verschiedene Module für Marketing und Verhaltensanalyse bereithält. Dafür wird unter anderem das Cookie \"zabUserId\" im Browser des Besuchers mit einer eindeutigen ID geschrieben, gelesen und an den Anbieter übertragen.\nhttps://www.zoho.com/pagesense/cookie-policy.html\nDas First-Party-Cookie besitzt eine Laufzeit von einem Jahr. Damit kann das Verhalten des Besuchers auf der Website teilweise in Echtzeit ausgewertet werden (zum Beispiel mit dem Modul \"SalesIQ\"). Die personenbezogene ID wird auch für das Produkt \"Page Sense\" verwendet, welches Sitzungen einzelner User aufzeichnet, Heatmaps besuchter Seiten erstellt oder Formulareingaben analysiert."
}
